<svg xmlns="http://www.w3.org/2000/svg" width="210" height="34" viewBox="0 0 210 34">
    <g fill="#0A1E43">
        <g>
            <path d="M146.706 19.72V4.368h5.745V3.363h-12.716v1.005h5.78V19.72h1.19zm9.108 0v-7.398h2.139c.162 0 .298.007.41.023.112.015.208.04.29.075.08.035.153.083.219.144.065.062.129.135.19.22l5.249 6.635c.077.116.16.195.248.237.089.043.199.064.33.064h1.017l-5.63-7.075c-.146-.192-.312-.347-.497-.462.717-.085 1.362-.25 1.937-.497.574-.247 1.063-.565 1.468-.954.404-.39.715-.842.93-1.358.216-.517.324-1.087.324-1.711 0-1.41-.468-2.48-1.405-3.208-.936-.728-2.344-1.092-4.225-1.092h-4.184V19.72h1.19zm2.832-8.277h-2.832V4.299h2.994c1.457 0 2.565.281 3.324.844.759.562 1.138 1.426 1.138 2.59 0 .57-.104 1.082-.312 1.537-.208.454-.51.844-.907 1.167-.397.324-.883.573-1.457.746-.574.173-1.223.26-1.948.26zm8.219 8.277c.108 0 .2-.03.277-.092.077-.062.131-.135.162-.22l1.919-4.751h8.034l1.919 4.75c.039.093.092.169.162.226.07.058.158.087.266.087h.913l-6.693-16.357h-1.168l-6.693 16.357h.902zm10.034-5.942h-7.318l3.33-8.254c.061-.138.119-.29.173-.456.054-.166.104-.341.15-.526.108.377.22.701.335.97l3.33 8.266zm11.732 5.942c1.156 0 2.214-.189 3.173-.566.96-.378 1.783-.921 2.468-1.63.686-.71 1.218-1.569 1.596-2.578.377-1.01.566-2.147.566-3.41 0-1.257-.189-2.39-.566-3.4-.378-1.009-.91-1.868-1.596-2.577-.685-.709-1.508-1.252-2.468-1.63-.96-.378-2.017-.566-3.173-.566h-5.976V19.72h5.976zm0-.96h-4.786V4.323h4.786c.979 0 1.873.162 2.682.486.81.323 1.503.793 2.08 1.41.579.616 1.026 1.372 1.342 2.266.316.894.474 1.91.474 3.052 0 1.148-.158 2.169-.474 3.063-.316.894-.763 1.65-1.341 2.266-.578.616-1.272 1.086-2.081 1.41-.81.324-1.703.486-2.682.486zm20.819.96l.023-.983h-8.635v-6.82h7.167v-.96h-7.167V4.346h8.612v-.982h-9.803V19.72h9.803zM89.652 3.335v9.72c0 .58.069 1.096.206 1.55.138.456.337.843.599 1.162.26.32.58.564.957.734.377.168.806.253 1.286.253s.909-.085 1.286-.253c.377-.17.697-.412.957-.728.262-.315.461-.7.6-1.156.136-.455.205-.972.205-1.55V3.335h3.577v9.732c0 1.007-.153 1.932-.46 2.774-.307.841-.746 1.567-1.317 2.176-.572.61-1.267 1.082-2.085 1.42-.82.34-1.74.508-2.763.508-1.03 0-1.954-.169-2.773-.507-.819-.339-1.514-.812-2.085-1.42-.572-.61-1.009-1.336-1.312-2.177-.304-.842-.456-1.767-.456-2.774V3.335h3.578zm17.54 0c1.116 0 2.067.122 2.853.366s1.43.585 1.927 1.02c.497.437.859.951 1.084 1.546.225.594.339 1.24.339 1.94 0 .533-.067 1.037-.201 1.51-.135.475-.332.912-.593 1.314-.26.402-.584.761-.968 1.077-.385.315-.827.575-1.329.778.233.128.452.288.657.48.204.191.388.419.55.681l3.28 5.718h-3.237c-.6 0-1.03-.24-1.292-.722l-2.561-4.77c-.12-.203-.255-.351-.402-.445-.15-.095-.36-.142-.635-.142h-.91v6.079h-3.578V3.335h5.017zm-44.047 0V16.72h5.716v3.045h-9.293V3.335h3.577zm20.223 0V4.71c0 .195-.03.386-.09.575-.06.188-.142.365-.248.53l-7.24 11.017h7.346v2.931H71.239V18.3c0-.173.028-.343.085-.513.056-.169.134-.325.233-.469l7.26-11.05h-6.985V3.335h11.536zm-30.927 0l4.547 16.43h-2.386c-.297 0-.545-.085-.746-.254-.2-.169-.34-.359-.419-.57l-.91-2.864h-5.592l-.909 2.864c-.1.241-.243.438-.434.592-.19.154-.441.231-.752.231h-2.374l4.548-16.43h5.427zm73.74 0l4.547 16.43h-2.387c-.296 0-.545-.085-.746-.254-.2-.169-.34-.359-.418-.57l-.91-2.864h-5.592l-.909 2.864c-.1.241-.243.438-.435.592-.19.154-.44.231-.751.231h-2.375l4.549-16.43h5.427zm-76.43 3.09l-1.995 7.059h3.945l-1.95-7.059zm73.74 0l-1.995 7.059h3.945l-1.95-7.059zm-16.298-.237h-1.44v4.871h1.44c.487 0 .901-.066 1.243-.197.342-.132.623-.314.842-.547.219-.233.377-.505.476-.818.099-.311.148-.648.148-1.009 0-.721-.22-1.286-.661-1.692-.44-.405-1.124-.608-2.048-.608z" transform="translate(0 .34)"/>
            <path d="M135.257 19.766L135.937 19.766 135.937 3.335 135.257 3.335z" opacity=".5" transform="translate(0 .34)"/>
            <path d="M18.982 0l1.37.593 14.85 6.426 2.761 1.194-.806 2.898-3.43 12.324-.381 1.369-1.235.704-11.42 6.51-1.71.974-1.708-.975-11.42-6.51-1.236-.703-.38-1.369-3.43-12.324L0 8.213 2.76 7.02 17.61.593 18.983 0zm0 3.76L4.13 10.186l3.43 12.324 11.42 6.51 11.421-6.51 3.43-12.324-14.85-6.426zm5.496 11.717v6.103h-.009l-8.243.002v-2.804h5.509v-3.301h2.743zm-4.956-4.948v2.743h-3.3v5.509h-2.738l.003-8.244v-.008h6.035zm4.103.853v2.732h-2.736v-2.732h2.736z" transform="translate(0 .34)"/>
        </g>
        <path d="M44.113 30.26v-2.652h2.632v-.347h-2.632v-2.427h3.04v-.347h-3.46v5.773h.42zm4.982.065c.302 0 .576-.07.822-.212.246-.141.463-.329.65-.563l.037.604c.011.07.05.106.119.106h.216V26.2h-.392v3.052c-.18.24-.384.427-.614.561-.23.135-.477.202-.74.202-.357 0-.622-.108-.796-.324-.174-.216-.261-.515-.261-.896V26.2h-.392v2.595c0 .237.029.45.086.637.057.187.141.348.253.481.111.133.251.235.42.306.169.07.366.106.592.106zm3.606-.065v-5.936h-.391v5.936h.391zm2.016 0v-3.643h1.979v3.643h.387v-3.933h-2.378v-.335c0-.451.117-.787.353-1.007.235-.22.567-.33.997-.33.07 0 .131.002.182.01l.124.014c.033.002.057.002.074 0 .016-.003.027-.015.032-.037l.017-.196c-.068-.027-.15-.048-.247-.063s-.189-.023-.276-.023c-.258 0-.488.038-.69.113-.2.074-.372.182-.513.322-.142.14-.25.31-.323.51-.073.2-.11.425-.11.675v.347h-.685v.159c0 .06.038.094.114.102l.571.037v3.635h.392zm4.182 0v-5.936h-.392v5.936h.392zm1.803 0v-5.936h-.391v5.936h.391zm1.767 0v-3.076c.147-.232.314-.412.502-.543.187-.13.391-.196.612-.196.302 0 .53.105.687.314.157.21.235.512.235.906v2.595h.391v-2.595c0-.201.03-.378.088-.53.059-.153.138-.28.237-.382.1-.102.213-.179.343-.23.129-.052.264-.078.406-.078.318 0 .563.104.734.312.171.208.257.511.257.908v2.595h.388v-2.595c0-.245-.03-.462-.09-.653-.06-.19-.146-.35-.257-.481-.112-.13-.248-.23-.408-.296-.16-.067-.342-.1-.543-.1-.141 0-.28.02-.414.057-.135.038-.26.097-.373.178-.115.08-.216.181-.304.304-.089.122-.157.266-.206.432-.063-.304-.183-.542-.361-.714-.179-.171-.416-.257-.712-.257-.256 0-.486.07-.69.208-.204.139-.385.321-.543.547l-.036-.588c-.011-.068-.05-.102-.119-.102h-.216v4.06h.392zm7.789.053c.152 0 .304-.015.455-.045.15-.03.292-.07.424-.12.132-.05.251-.111.359-.182.107-.07.194-.147.259-.228l-.106-.13c-.02-.028-.046-.042-.082-.042-.027 0-.07.023-.13.068-.06.045-.141.095-.243.15-.102.056-.228.107-.377.152-.15.045-.327.067-.53.067-.23 0-.436-.04-.621-.118-.185-.08-.343-.197-.473-.353-.13-.157-.231-.35-.302-.582-.07-.23-.106-.499-.106-.803v-.078h2.954c.038 0 .065-.01.081-.033.017-.021.025-.062.025-.122 0-.286-.042-.539-.125-.759-.083-.22-.196-.406-.34-.557-.145-.15-.315-.266-.51-.345-.196-.078-.408-.118-.637-.118-.288 0-.546.05-.773.151-.227.1-.419.24-.575.418-.157.178-.276.39-.36.637-.082.246-.124.515-.124.806 0 .345.044.652.133.92.088.268.214.494.377.679.163.185.36.326.588.422.228.097.481.145.759.145zm1.236-2.493h-2.689c.025-.212.074-.404.147-.575.073-.171.17-.318.292-.44.12-.123.264-.217.43-.282.166-.066.354-.098.563-.098.185 0 .354.032.508.096.154.064.286.155.398.275.111.12.198.266.259.439.061.172.092.368.092.585zm1.8 2.44v-3.052c.179-.24.383-.426.613-.56.23-.135.477-.203.74-.203.357 0 .622.108.796.325.174.216.261.514.261.895v2.595h.392v-2.595c0-.237-.028-.449-.086-.636-.057-.188-.141-.349-.253-.482-.111-.133-.252-.235-.422-.306-.17-.07-.366-.106-.59-.106-.301 0-.575.07-.822.212-.246.142-.463.33-.65.563l-.037-.608c-.01-.068-.05-.102-.118-.102H72.9v4.06h.392zm5.152.065c.172 0 .337-.034.496-.104.159-.07.29-.16.394-.275l-.106-.172c-.022-.027-.044-.04-.066-.04-.019 0-.045.014-.077.043-.033.028-.075.06-.127.093-.051.034-.113.066-.183.094-.071.029-.155.043-.253.043-.08 0-.153-.012-.22-.037-.069-.024-.128-.062-.178-.114-.05-.052-.09-.118-.118-.198-.029-.08-.043-.176-.043-.287v-2.754h1.28v-.29h-1.28v-1.55h-.184c-.03 0-.053.009-.07.028-.016.02-.026.04-.032.065l-.098 1.453-.693.049v.15c0 .03.01.054.028.07.02.016.044.025.074.025h.583v2.774c0 .318.077.553.23.706.154.152.368.228.643.228zm4.668 0c.166 0 .318-.016.457-.049.138-.032.268-.079.387-.138.12-.06.235-.134.345-.22.11-.088.221-.186.333-.294l.057.522c.019.076.069.114.15.114H85v-2.644c0-.226-.028-.43-.082-.614-.054-.183-.135-.34-.243-.47-.107-.128-.242-.228-.406-.297-.163-.07-.353-.104-.57-.104-.297 0-.563.054-.796.163-.234.109-.457.27-.67.482l.07.118c.013.022.03.04.049.053.019.014.043.02.073.02.041 0 .091-.027.151-.081.06-.055.137-.114.233-.18.095-.065.211-.125.349-.18.137-.054.303-.08.5-.08.318 0 .558.1.72.303.161.203.242.492.242.867v.424c-.46.011-.853.05-1.181.115-.328.065-.596.152-.806.26-.21.11-.363.237-.46.384-.099.147-.148.306-.148.478 0 .185.03.343.092.475.061.132.143.24.245.324.102.085.218.147.349.188.13.04.265.061.404.061zm.098-.281c-.106 0-.208-.015-.306-.045s-.185-.077-.26-.14c-.074-.065-.134-.146-.179-.246-.045-.099-.067-.217-.067-.353 0-.144.043-.272.13-.385.087-.113.221-.21.402-.292.181-.081.41-.146.69-.194.278-.047.611-.078.997-.091v1.06c-.095.098-.192.19-.29.274-.097.084-.203.157-.316.218-.113.061-.235.109-.367.143-.132.034-.277.05-.434.05zm3.476.216v-3.052c.18-.24.384-.426.614-.56.23-.135.476-.203.74-.203.357 0 .622.108.796.325.174.216.261.514.261.895v2.595h.392v-2.595c0-.237-.029-.449-.086-.636-.057-.188-.141-.349-.253-.482-.111-.133-.252-.235-.422-.306-.17-.07-.367-.106-.59-.106-.302 0-.576.07-.822.212s-.463.33-.65.563l-.037-.608c-.011-.068-.05-.102-.119-.102h-.216v4.06h.392zm5.442.053c.3 0 .569-.072.808-.216.24-.144.45-.339.629-.584l.04.64c.011.072.052.107.123.107h.212v-5.936h-.388v2.407c-.15-.199-.325-.348-.526-.449-.201-.1-.44-.151-.714-.151-.286 0-.538.054-.757.163-.219.109-.403.258-.553.447-.15.189-.263.412-.34.67-.078.256-.117.533-.117.83 0 .69.14 1.208.417 1.554.277.345.666.518 1.166.518zm.11-.314c-.418 0-.739-.142-.96-.426-.222-.285-.333-.729-.333-1.333 0-.266.03-.51.092-.732.061-.222.152-.412.273-.571.121-.16.272-.282.451-.37.18-.086.39-.13.629-.13.242 0 .457.048.646.143.19.095.361.26.516.494v2.133c-.168.25-.363.445-.583.584-.22.139-.464.208-.73.208zm6.655.326c.294 0 .555-.045.783-.136.229-.092.422-.216.58-.374.158-.157.278-.343.36-.557.084-.213.125-.441.125-.683 0-.237-.041-.435-.124-.594-.083-.159-.193-.293-.329-.402-.136-.108-.29-.199-.463-.27-.172-.073-.35-.139-.532-.199-.182-.06-.36-.12-.532-.181-.173-.062-.328-.137-.464-.227s-.245-.198-.328-.326c-.083-.128-.124-.29-.124-.486 0-.15.027-.292.083-.428.056-.136.138-.256.245-.36.107-.102.24-.184.4-.244.159-.06.343-.09.553-.09.21 0 .385.026.528.078.143.052.262.108.357.17.095.06.17.116.226.166.056.05.102.076.137.076.046 0 .082-.023.106-.07l.098-.187c-.196-.196-.413-.341-.65-.437-.239-.095-.507-.142-.806-.142-.267 0-.504.041-.712.124-.208.083-.383.193-.525.33-.141.138-.249.296-.322.476-.073.18-.11.366-.11.559 0 .247.041.453.124.618.083.164.193.302.329.412.136.11.29.2.463.271.173.071.35.135.532.192.183.057.36.116.533.175.172.06.327.134.463.223.136.088.245.198.328.33.083.132.125.3.125.504 0 .188-.033.364-.098.529-.066.164-.16.306-.284.426-.124.12-.275.214-.455.283-.18.07-.383.104-.612.104-.166 0-.314-.016-.444-.048-.131-.033-.247-.073-.347-.12-.1-.048-.19-.1-.265-.156-.077-.056-.142-.107-.196-.155-.055-.048-.1-.088-.139-.12-.038-.033-.07-.05-.094-.05-.043 0-.081.021-.114.062l-.114.18c.206.233.447.418.722.552.275.135.602.202.983.202zm4.537-.012c.152 0 .304-.015.455-.045.151-.03.292-.07.424-.12.132-.05.252-.111.36-.182.107-.07.193-.147.258-.228l-.106-.13c-.019-.028-.046-.042-.081-.042-.027 0-.071.023-.13.068-.06.045-.142.095-.244.15-.102.056-.227.107-.377.152s-.326.067-.53.067c-.229 0-.436-.04-.62-.118-.185-.08-.343-.197-.474-.353-.13-.157-.231-.35-.302-.582-.07-.23-.106-.499-.106-.803v-.078h2.954c.038 0 .065-.01.082-.033.016-.021.024-.062.024-.122 0-.286-.041-.539-.124-.759-.083-.22-.197-.406-.34-.557-.145-.15-.315-.266-.51-.345-.197-.078-.409-.118-.637-.118-.289 0-.546.05-.774.151-.227.1-.418.24-.575.418-.156.178-.276.39-.359.637-.083.246-.124.515-.124.806 0 .345.044.652.132.92.089.268.214.494.378.679.163.185.359.326.587.422.229.097.482.145.76.145zm1.236-2.493h-2.688c.024-.212.073-.404.146-.575.074-.171.171-.318.292-.44.121-.123.265-.217.43-.282.167-.066.354-.098.564-.098.185 0 .354.032.508.096.153.064.286.155.397.275.112.12.198.266.26.439.06.172.091.368.091.585zm1.8 2.44v-2.628c.06-.182.125-.343.197-.483.073-.14.157-.258.253-.353.097-.095.206-.167.327-.214.12-.048.26-.072.418-.072.109 0 .197.01.263.029.067.02.116.029.15.029.037 0 .063-.022.077-.066l.032-.269c-.062-.038-.134-.065-.216-.08-.082-.014-.165-.022-.249-.022-.158 0-.301.024-.43.071-.13.048-.246.117-.351.206-.105.09-.197.2-.278.329-.08.13-.151.277-.214.443l-.028-.853c-.006-.046-.018-.079-.037-.098-.02-.02-.052-.029-.098-.029h-.208v4.06h.392zm4.039 0l1.713-4.06h-.293c-.033 0-.06.01-.084.027-.023.018-.041.041-.055.071l-1.346 3.203c-.044.12-.078.238-.102.355-.025-.117-.058-.235-.098-.355l-1.343-3.203c-.008-.024-.024-.047-.049-.067-.024-.02-.055-.03-.094-.03h-.306l1.714 4.059h.343zm2.782-5.104c.05 0 .096-.01.14-.029.043-.019.08-.045.113-.077.033-.033.06-.07.08-.112.02-.043.03-.088.03-.137 0-.049-.01-.096-.03-.14-.02-.046-.047-.084-.08-.117-.032-.033-.07-.059-.114-.078-.043-.019-.09-.028-.139-.028-.049 0-.095.01-.138.028-.044.02-.082.045-.115.078-.032.033-.058.071-.077.116-.02.045-.029.092-.029.141 0 .049.01.094.029.137.019.042.045.08.077.112.033.032.071.058.115.077.043.02.09.029.138.029zm.196 5.104V26.2h-.387v4.06h.387zm2.885.053c.152 0 .298-.014.438-.043.14-.028.27-.068.39-.12.12-.052.227-.113.322-.184.096-.07.174-.147.237-.228l-.102-.13c-.022-.028-.049-.042-.082-.042-.032 0-.073.024-.122.07-.049.046-.116.096-.202.15-.086.055-.194.105-.326.152-.132.046-.296.069-.492.069-.212 0-.405-.04-.58-.118-.173-.08-.322-.194-.444-.345-.123-.151-.217-.337-.284-.557-.066-.22-.1-.473-.1-.759 0-.275.032-.522.096-.742.064-.22.159-.408.284-.563.125-.155.278-.274.459-.357.18-.083.388-.125.622-.125.169 0 .312.018.43.055.119.037.217.077.296.12.08.044.142.084.188.12.046.038.083.056.11.056.022 0 .039-.005.051-.014.012-.01.025-.021.039-.035l.102-.139c-.152-.144-.33-.258-.535-.342-.204-.085-.438-.127-.701-.127-.294 0-.555.051-.782.153-.227.102-.42.246-.577.43-.158.186-.277.406-.36.662-.08.255-.121.538-.121.848 0 .33.042.623.128.881.086.259.205.477.36.655.153.178.336.314.55.408.213.094.45.141.708.141zm3.88 0c.152 0 .304-.015.455-.045.15-.03.292-.07.424-.12.132-.05.252-.111.36-.182.107-.07.193-.147.258-.228l-.106-.13c-.019-.028-.046-.042-.081-.042-.028 0-.071.023-.131.068-.06.045-.14.095-.243.15-.102.056-.228.107-.377.152-.15.045-.327.067-.53.067-.23 0-.436-.04-.62-.118-.186-.08-.343-.197-.474-.353-.13-.157-.231-.35-.302-.582-.07-.23-.106-.499-.106-.803v-.078h2.954c.038 0 .065-.01.081-.033.017-.021.025-.062.025-.122 0-.286-.042-.539-.124-.759-.083-.22-.197-.406-.341-.557-.144-.15-.314-.266-.51-.345-.196-.078-.408-.118-.637-.118-.288 0-.546.05-.773.151-.227.1-.419.24-.575.418-.156.178-.276.39-.36.637-.082.246-.124.515-.124.806 0 .345.045.652.133.92.088.268.214.494.377.679.164.185.36.326.588.422.228.097.481.145.759.145zm1.236-2.493h-2.689c.025-.212.074-.404.147-.575.074-.171.17-.318.292-.44.121-.123.264-.217.43-.282.166-.066.354-.098.563-.098.185 0 .355.032.508.096.154.064.287.155.398.275.112.12.198.266.26.439.06.172.091.368.091.585z"/>
    </g>
</svg>
