<svg xmlns="http://www.w3.org/2000/svg" width="133" height="188" viewBox="0 0 133 188">
    <g fill="none" fill-rule="evenodd">
        <path fill="#C9D8FC" fill-opacity=".602" fill-rule="nonzero" d="M91.433 47.282c1.182 1.16 1.2 3.06.038 4.242-.314.32-.635.635-.962.943-2.184-.846-4.421-1.58-6.708-2.194 1.204-.893 2.337-1.882 3.39-2.953 1.16-1.182 3.06-1.2 4.242-.038zm-46.423-.81c1.27 1.401 2.673 2.675 4.188 3.803-2.287.613-4.524 1.346-6.706 2.19-.668-.627-1.31-1.282-1.927-1.962-1.113-1.227-1.02-3.125.207-4.237 1.228-1.113 3.125-1.02 4.238.207zm52.903-12.638c1.58.501 2.453 2.188 1.952 3.767-.776 2.445-1.82 4.792-3.108 7.002-.834 1.432-2.671 1.916-4.102 1.081-1.432-.834-1.916-2.671-1.081-4.103 1.066-1.83 1.93-3.772 2.572-5.796.502-1.579 2.188-2.453 3.767-1.951zm-59.395.813c.559 2.049 1.34 4.024 2.33 5.895.776 1.465.217 3.28-1.248 4.055-1.464.775-3.28.216-4.054-1.249-1.196-2.26-2.142-4.647-2.817-7.123-.436-1.599.507-3.248 2.106-3.684 1.598-.435 3.247.507 3.683 2.106zm62.531-13.277c.3 1.85.451 3.731.451 5.63 0 .66-.018 1.319-.055 1.975-.092 1.654-1.508 2.92-3.162 2.828-1.654-.092-2.92-1.508-2.829-3.162.03-.545.046-1.092.046-1.641 0-1.577-.126-3.138-.374-4.671-.264-1.636.847-3.176 2.482-3.441 1.636-.265 3.176.847 3.441 2.482zm-65.314-3.703c1.624.33 2.673 1.913 2.344 3.536-.384 1.893-.579 3.832-.579 5.798l.005.522c.029 1.657-1.29 3.024-2.947 3.053-1.657.03-3.023-1.29-3.052-2.947-.004-.209-.006-.418-.006-.628 0-2.367.235-4.705.698-6.99.33-1.624 1.913-2.673 3.537-2.344zm59.02-11.326c1.512 2.064 2.794 4.289 3.822 6.635.664 1.518-.028 3.287-1.546 3.952-1.517.664-3.286-.028-3.95-1.546-.851-1.942-1.914-3.785-3.167-5.496-.978-1.337-.688-3.214.648-4.193 1.337-.979 3.214-.689 4.193.648zM43.3 4.758c1.298 1.031 1.513 2.918.483 4.216-1.32 1.66-2.454 3.46-3.381 5.367-.725 1.49-2.52 2.111-4.01 1.387-1.49-.724-2.111-2.52-1.387-4.01 1.12-2.302 2.488-4.474 4.08-6.477 1.031-1.297 2.918-1.513 4.215-.483zm45.858-.553c-1.054 1.279-2.945 1.46-4.223.407-.52-.43-1.056-.84-1.605-1.232L88.952.164c1.093 1.079 1.2 2.833.205 4.041zM44.301.567l5.17 2.956c-.17.124-.339.25-.506.377-1.32 1.003-3.201.747-4.204-.572-.622-.818-.76-1.854-.46-2.76z"/>
        <path fill="#002A91" fill-rule="nonzero" d="M45.6 169.156c2.079.795 4.214 1.476 6.4 2.033l-.001 8.225c-2.177-.484-4.314-1.075-6.405-1.767.004-.082.006-.164.006-.247v-8.244zm42.4-.233v8.525c-2.088.713-4.223 1.325-6.399 1.83v-8.246c2.186-.582 4.321-1.288 6.399-2.11zM66.5 48c36.727 0 66.5 29.773 66.5 66.5 0 15.398-5.234 29.575-14.02 40.846-.749-2.655-2.655-4.577-5.698-5.717C120.64 139.846 125 127.682 125 114.5 125 82.191 98.809 56 66.5 56S8 82.191 8 114.5c0 14.27 5.11 27.347 13.6 37.501L20.2 152c-2.606 0-4.837 1.608-5.754 3.886C5.403 144.53 0 130.146 0 114.5 0 77.773 29.773 48 66.5 48z"/>
        <g>
            <g transform="translate(19 146) translate(0 11)">
                <rect width="21.6" height="21.6" fill="#C9D8FC" stroke="#002A91" stroke-width="3.6" rx="1.2"/>
                <path fill="#002A91" d="M8.4 1.2L13.2 1.2 13.2 10.8 10.8 8.888 8.4 10.8z"/>
                <g fill="#002A91">
                    <path d="M1.2 3.6H3.5999999999999996V7.2H1.2z" transform="translate(13.2 10.8)"/>
                    <path d="M2.4 0L4.8 4.8 0 4.8z" transform="translate(13.2 10.8)"/>
                </g>
            </g>
            <g>
                <g transform="translate(19 146) translate(74) translate(0 13.2)">
                    <rect width="19.44" height="19.44" fill="#C9D8FC" stroke="#002A91" stroke-width="3.24" rx="1.08"/>
                    <path fill="#002A91" d="M7.56 1.08L11.88 1.08 11.88 9.72 9.72 7.999 7.56 9.72z"/>
                    <g fill="#002A91">
                        <path d="M1.08 3.24H3.24V6.48H1.08z" transform="translate(11.88 9.72)"/>
                        <path d="M2.16 0L4.32 4.32 0 4.32z" transform="translate(11.88 9.72)"/>
                    </g>
                </g>
                <path fill="#002A91" d="M13.2 0l.001 3.619c11.732.374 14.836 6.368 9.313 17.981 2.412-9.185-.693-13.976-9.313-14.373L13.2 10.8l-6-5.4 6-5.4z" transform="translate(19 146) translate(74)"/>
            </g>
            <g>
                <path fill="#C9D8FC" stroke="#002A91" stroke-width="3.6" d="M1.2 0h13.5l4.9 5.4v15c0 .663-.537 1.2-1.2 1.2H1.2c-.663 0-1.2-.537-1.2-1.2V1.2C0 .537.537 0 1.2 0z" transform="translate(19 146) translate(38 18)"/>
                <path fill="#002A91" d="M4 4H13V6H4zM4 8H16V10H4zM4 12H16V14H4zM4 16H11V18H4z" transform="translate(19 146) translate(38 18)"/>
            </g>
        </g>
        <path fill="#002A91" d="M102 118.093v8H45.657l7.265 7.265c1.562 1.562 1.562 4.095 0 5.657-1.562 1.562-4.095 1.562-5.657 0l-14.142-14.142c-.695-.72-1.123-1.7-1.123-2.78 0-2.209 1.79-4 4-4h66zM86.735 88.172l14.142 14.142c.695.72 1.123 1.7 1.123 2.78 0 2.209-1.79 4-4 4H32v-8h56.343l-7.265-7.266c-1.562-1.562-1.562-4.094 0-5.656 1.562-1.563 4.095-1.563 5.657 0z"/>
    </g>
</svg>
