<svg xmlns="http://www.w3.org/2000/svg" width="71" height="53" viewBox="0 0 71 53">
    <path fill="#C9D8FC" fill-opacity=".602" d="M60.433 47.282c1.182 1.16 1.2 3.06.038 4.242-.314.32-.635.635-.962.943-2.184-.846-4.421-1.58-6.708-2.194 1.204-.893 2.337-1.882 3.39-2.953 1.16-1.182 3.06-1.2 4.242-.038zm-46.423-.81c1.27 1.401 2.673 2.675 4.188 3.803-2.287.613-4.524 1.346-6.706 2.19-.668-.627-1.31-1.282-1.927-1.962-1.113-1.227-1.02-3.125.207-4.237 1.228-1.113 3.125-1.02 4.238.207zm52.903-12.638c1.58.501 2.453 2.188 1.952 3.767-.776 2.445-1.82 4.792-3.108 7.002-.834 1.432-2.671 1.916-4.102 1.081-1.432-.834-1.916-2.671-1.081-4.103 1.066-1.83 1.93-3.772 2.572-5.796.502-1.579 2.188-2.453 3.767-1.951zm-59.395.813c.559 2.049 1.34 4.024 2.33 5.895.776 1.465.217 3.28-1.248 4.055-1.464.775-3.28.216-4.054-1.249-1.196-2.26-2.142-4.647-2.817-7.123-.436-1.599.507-3.248 2.106-3.684 1.598-.435 3.247.507 3.683 2.106zM70.049 21.37c.3 1.85.451 3.731.451 5.63 0 .66-.018 1.319-.055 1.975-.092 1.654-1.508 2.92-3.162 2.828-1.654-.092-2.92-1.508-2.829-3.162.03-.545.046-1.092.046-1.641 0-1.577-.126-3.138-.374-4.671-.264-1.636.847-3.176 2.482-3.441 1.636-.265 3.176.847 3.441 2.482zM4.735 17.667c1.624.33 2.673 1.913 2.344 3.536-.384 1.893-.579 3.832-.579 5.798l.005.522c.029 1.657-1.29 3.024-2.947 3.053-1.657.03-3.023-1.29-3.052-2.947C.502 27.42.5 27.211.5 27.001c0-2.367.235-4.705.698-6.99.33-1.624 1.913-2.673 3.537-2.344zm59.02-11.326c1.512 2.064 2.794 4.289 3.822 6.635.664 1.518-.028 3.287-1.546 3.952-1.517.664-3.286-.028-3.95-1.546-.851-1.942-1.914-3.785-3.167-5.496-.978-1.337-.688-3.214.648-4.193 1.337-.979 3.214-.689 4.193.648zM12.3 4.758c1.298 1.031 1.513 2.918.483 4.216-1.32 1.66-2.454 3.46-3.381 5.367-.725 1.49-2.52 2.111-4.01 1.387-1.49-.724-2.111-2.52-1.387-4.01 1.12-2.302 2.488-4.474 4.08-6.477 1.031-1.297 2.918-1.513 4.215-.483zm45.858-.553c-1.054 1.279-2.945 1.46-4.223.407-.52-.43-1.056-.84-1.605-1.232L57.952.164c1.093 1.079 1.2 2.833.205 4.041zM13.301.567l5.17 2.956-.506.377c-1.32 1.003-3.201.747-4.204-.572-.581-.764-.74-1.716-.514-2.578l.054-.183z"/>
</svg>
