<svg xmlns="http://www.w3.org/2000/svg" width="828" height="105" viewBox="0 0 828 105">
    <path fill="#C9D8FC" d="M460 0c14.62 0 26.621 11.204 27.89 25.493 37.9-.776 74.215-.925 108.249-.363 87.555 1.445 156.18 7.523 201.087 18.98l1.354.35.17.049 15.604 5.063-14.01-15.202c-1.08-1.171-1.05-2.971.037-4.106l.135-.133c1.172-1.08 2.971-1.05 4.106.038l.133.135 21.772 23.624c1.544 1.676.724 4.37-1.44 4.934l-.175.04-31.494 6.338c-1.624.327-3.206-.725-3.533-2.349-.315-1.566.652-3.093 2.178-3.493l.171-.04 20.267-4.079-15.51-5.034-1.259-.324c-43.892-11.196-111.2-17.232-197.058-18.747l-2.634-.045c-34.024-.562-70.344-.411-108.257.368C486.063 45.31 474.28 56 460 56c-13.746 0-25.178-9.905-27.549-22.967-25.411.88-51.35 2.007-77.624 3.357-146.478 7.526-254.169 25.258-322.98 53.124l-2.04.834-14.743 6.838 20.61 1.614c1.593.125 2.798 1.472 2.766 3.05l-.009.175c-.125 1.593-1.472 2.798-3.049 2.766l-.176-.009-32.028-2.508c-2.274-.178-3.505-2.714-2.298-4.6l.098-.144 18.775-26.069c.968-1.344 2.843-1.649 4.188-.68 1.292.93 1.624 2.7.787 4.03l-.106.157-12.083 16.775 14.83-6.877.117-.051c69.475-28.669 178.453-46.783 327.033-54.417 26.229-1.348 52.124-2.473 77.497-3.353C432.519 12.024 444.856 0 460 0zm0 6c-12.15 0-22 9.85-22 22s9.85 22 22 22c10.916 0 19.975-7.95 21.703-18.375.195-1.18.297-2.39.297-3.625 0-.804-.043-1.597-.127-2.379l-.015-.136C480.61 14.519 471.3 6 460 6z"/>
</svg>
