<svg xmlns="http://www.w3.org/2000/svg" width="180" height="60" viewBox="0 0 180 60">
    <g fill="none" fill-rule="evenodd">
        <g fill-rule="nonzero">
            <path fill="#FFF" d="M4.588 38.802l.238-1.193c.04-.176.132-.335.277-.477.145-.142.315-.285.511-.43.196-.145.403-.303.622-.473.219-.17.419-.372.6-.605.182-.233.333-.507.452-.822.12-.315.179-.688.179-1.12 0-.454-.081-.867-.243-1.24-.162-.371-.393-.69-.694-.953-.301-.264-.666-.467-1.095-.61-.428-.141-.91-.212-1.444-.212-.38 0-.734.032-1.06.098-.327.065-.632.156-.916.272-.284.117-.55.252-.796.405-.247.153-.476.318-.686.494l.699 1.073c.119.21.3.315.545.315.108 0 .216-.03.323-.093.108-.063.235-.132.38-.209.144-.077.318-.146.52-.209.2-.062.452-.093.753-.093.392 0 .7.1.924.302.225.202.337.473.337.813 0 .296-.067.55-.2.763-.134.213-.297.406-.49.58-.193.172-.4.334-.622.485-.222.15-.422.31-.6.477-.18.167-.32.355-.422.562-.103.207-.13.45-.086.728l.188 1.372h1.806zM3.6 43.333c.21 0 .406-.037.587-.11.182-.074.341-.176.477-.307.137-.13.243-.285.32-.464.077-.18.115-.37.115-.575 0-.205-.038-.395-.115-.571-.077-.176-.183-.33-.32-.46-.136-.13-.295-.234-.477-.31-.181-.078-.377-.116-.587-.116-.216 0-.415.038-.597.115-.181.077-.339.18-.472.311-.134.13-.239.284-.316.46-.076.176-.115.366-.115.57 0 .205.039.397.115.576.077.179.182.333.316.464.133.13.29.233.472.307.182.073.38.11.597.11z" transform="translate(131 8)"/>
            <path fill="#002A91" d="M4.588 8.802l.238-1.193c.04-.176.132-.335.277-.477.145-.142.315-.285.511-.43.196-.145.403-.303.622-.473.219-.17.419-.372.6-.605.182-.233.333-.507.452-.822.12-.315.179-.688.179-1.12 0-.454-.081-.867-.243-1.24-.162-.371-.393-.69-.694-.953-.301-.264-.666-.467-1.095-.61-.428-.141-.91-.212-1.444-.212-.38 0-.734.032-1.06.098-.327.065-.632.156-.916.272-.284.117-.55.252-.796.405-.247.153-.476.318-.686.494l.699 1.073c.119.21.3.315.545.315.108 0 .216-.03.323-.093.108-.063.235-.132.38-.209.144-.077.318-.146.52-.209.2-.062.452-.093.753-.093.392 0 .7.1.924.302.225.202.337.473.337.813 0 .296-.067.55-.2.763-.134.213-.297.406-.49.58-.193.172-.4.334-.622.485-.222.15-.422.31-.6.477-.18.167-.32.355-.422.562-.103.207-.13.45-.086.728l.188 1.372h1.806zM3.6 13.333c.21 0 .406-.037.587-.11.182-.074.341-.176.477-.307.137-.13.243-.285.32-.464.077-.18.115-.37.115-.575 0-.205-.038-.395-.115-.571-.077-.176-.183-.33-.32-.46-.136-.13-.295-.234-.477-.31-.181-.078-.377-.116-.587-.116-.216 0-.415.038-.597.115-.181.077-.339.18-.472.311-.134.13-.239.284-.316.46-.076.176-.115.366-.115.57 0 .205.039.397.115.576.077.179.182.333.316.464.133.13.29.233.472.307.182.073.38.11.597.11z" transform="translate(131 8)"/>
        </g>
        <g transform="translate(156 6)">
            <path d="M0 0L18 0 18 18 0 18z"/>
            <circle cx="9" cy="9" r="8" fill="#0FC700" fill-opacity=".1"/>
            <path fill="#0FC700" d="M7.736 13.45L4.907 10.62c-.39-.39-.39-1.023 0-1.414.39-.39 1.024-.39 1.414 0l1.415 1.414 4.242-4.242c.39-.39 1.024-.39 1.414 0 .39.39.39 1.023 0 1.414L7.736 13.45z"/>
            <g opacity=".4" transform="translate(0 30)">
                <path d="M0 0L18 0 18 18 0 18z"/>
                <circle cx="9" cy="9" r="8" fill="#000" fill-opacity=".1"/>
                <path fill="#828282" d="M7.736 13.45L4.907 10.62c-.39-.39-.39-1.023 0-1.414.39-.39 1.024-.39 1.414 0l1.415 1.414 4.242-4.242c.39-.39 1.024-.39 1.414 0 .39.39.39 1.023 0 1.414L7.736 13.45z"/>
            </g>
        </g>
        <path fill="#002A91" fill-rule="nonzero" d="M23.5 9c1.38 0 2.5 1.12 2.5 2.5v16c0 1.38-1.12 2.5-2.5 2.5h-16C6.12 30 5 28.88 5 27.5v-16C5 10.12 6.12 9 7.5 9zm-10 3H8v15h15V12h-5.5v7.5l-2-1.593-2 1.593V12zm6 7.5l2 4h-1v2h-2v-2h-1l2-4z"/>
        <path fill="#FFF" fill-rule="nonzero" d="M23.5 39c1.38 0 2.5 1.12 2.5 2.5v16c0 1.38-1.12 2.5-2.5 2.5h-16C6.12 60 5 58.88 5 57.5v-16C5 40.12 6.12 39 7.5 39zm-10 3H8v15h15V42h-5.5v7.5l-2-1.593-2 1.593V42zm6 7.5l2 4h-1v2h-2v-2h-1l2-4z"/>
        <path fill="#002A91" fill-rule="nonzero" d="M50.174 9L55 14.43V27.3c0 1.491-1.209 2.7-2.7 2.7H38.7c-1.491 0-2.7-1.209-2.7-2.7V11.7c0-1.491 1.209-2.7 2.7-2.7h11.474zm-1.348 3H39v15h13V15.571L48.826 12zM45.5 23.49v2h-5v-2h5zm5-3.33v2h-10v-2h10zm0-3.33v2h-10v-2h10zm-3-3.33v2h-7v-2h7z"/>
        <path fill="#FFF" fill-rule="nonzero" d="M50.174 39L55 44.43V57.3c0 1.491-1.209 2.7-2.7 2.7H38.7c-1.491 0-2.7-1.209-2.7-2.7V41.7c0-1.491 1.209-2.7 2.7-2.7h11.474zm-1.348 3H39v15h13V45.571L48.826 42zM45.5 53.49v2h-5v-2h5zm5-3.33v2h-10v-2h10zm0-3.33v2h-10v-2h10zm-3-3.33v2h-7v-2h7z"/>
        <path fill="#002A91" fill-rule="nonzero" d="M80.41 10.802c1.174 0 2.135.94 2.213 2.13l.005.156v14.627c0 1.21-.912 2.2-2.066 2.28L80.41 30H66.218c-1.174 0-2.135-.94-2.213-2.129L64 27.715V13.088c0-1.21.912-2.2 2.066-2.28l.152-.006H80.41zm-8.871 2.741H66.66v13.713h13.306V13.544h-4.878V20.4l-1.774-1.456L71.54 20.4l-.001-6.858zm5.323 6.858l1.774 3.657h-.887v1.828h-1.774v-1.829h-.887l1.774-3.656zM76.172 1v3.063c9.637.317 12.186 5.39 7.65 15.22 1.981-7.775-.569-11.83-7.65-12.166v3.025L71.244 5.57 76.172 1zM102.725 16.35c.85 0 1.548.653 1.619 1.485l.006.14v10.4c0 .85-.653 1.548-1.485 1.619l-.14.006h-10.4c-.85 0-1.548-.653-1.619-1.485l-.006-.14v-10.4c0-.85.653-1.548 1.485-1.619l.14-.006h10.4zm14.95 0c.85 0 1.548.653 1.619 1.485l.006.14v10.4c0 .85-.653 1.548-1.485 1.619l-.14.006h-10.4c-.85 0-1.548-.653-1.619-1.485l-.006-.14v-10.4c0-.85.653-1.548 1.485-1.619l.14-.006h10.4zm-21.45 1.95H92.65v9.75h9.75V18.3h-3.575v4.875l-1.3-1.036-1.3 1.036V18.3zm14.95 0H107.6v9.75h9.75V18.3h-3.575v4.875l-1.3-1.036-1.3 1.036V18.3zm-11.05 4.875l1.3 2.6h-.65v1.3h-1.3v-1.3h-.65l1.3-2.6zm14.95 0l1.3 2.6h-.65v1.3h-1.3v-1.3h-.65l1.3-2.6zM109.825 1.4c.85 0 1.548.653 1.619 1.485l.006.14v10.4c0 .85-.653 1.548-1.485 1.619l-.14.006h-10.4c-.85 0-1.548-.653-1.619-1.485l-.006-.14v-10.4c0-.85.653-1.548 1.485-1.619l.14-.006h10.4zm-6.5 1.95H99.75v9.75h9.75V3.35h-3.575v4.875l-1.3-1.036-1.3 1.036V3.35zm3.9 4.875l1.3 2.6h-.65v1.3h-1.3v-1.3h-.65l1.3-2.6z"/>
        <path fill="#FFF" fill-rule="nonzero" d="M102.725 46.35c.85 0 1.548.653 1.619 1.485l.006.14v10.4c0 .85-.653 1.548-1.485 1.619l-.14.006h-10.4c-.85 0-1.548-.653-1.619-1.485l-.006-.14v-10.4c0-.85.653-1.548 1.485-1.619l.14-.006h10.4zm14.95 0c.85 0 1.548.653 1.619 1.485l.006.14v10.4c0 .85-.653 1.548-1.485 1.619l-.14.006h-10.4c-.85 0-1.548-.653-1.619-1.485l-.006-.14v-10.4c0-.85.653-1.548 1.485-1.619l.14-.006h10.4zm-21.45 1.95H92.65v9.75h9.75V48.3h-3.575v4.875l-1.3-1.036-1.3 1.036V48.3zm14.95 0H107.6v9.75h9.75V48.3h-3.575v4.875l-1.3-1.036-1.3 1.036V48.3zm-11.05 4.875l1.3 2.6h-.65v1.3h-1.3v-1.3h-.65l1.3-2.6zm14.95 0l1.3 2.6h-.65v1.3h-1.3v-1.3h-.65l1.3-2.6zm-5.25-21.775c.85 0 1.548.653 1.619 1.485l.006.14v10.4c0 .85-.653 1.548-1.485 1.619l-.14.006h-10.4c-.85 0-1.548-.653-1.619-1.485l-.006-.14v-10.4c0-.85.653-1.548 1.485-1.619l.14-.006h10.4zm-6.5 1.95H99.75v9.75h9.75v-9.75h-3.575v4.875l-1.3-1.036-1.3 1.036V33.35zm3.9 4.875l1.3 2.6h-.65v1.3h-1.3v-1.3h-.65l1.3-2.6zM80.41 40.802c1.174 0 2.135.94 2.213 2.13l.005.156v14.627c0 1.21-.912 2.2-2.066 2.28L80.41 60H66.218c-1.174 0-2.135-.94-2.213-2.129L64 57.715V43.088c0-1.21.912-2.2 2.066-2.28l.152-.006H80.41zm-8.871 2.741H66.66v13.713h13.306V43.544h-4.878V50.4l-1.774-1.456L71.54 50.4l-.001-6.858zm5.323 6.858l1.774 3.657h-.887v1.828h-1.774v-1.829h-.887l1.774-3.656zM76.172 31v3.063c9.637.317 12.186 5.39 7.65 15.22 1.981-7.775-.569-11.83-7.65-12.166v3.025l-4.928-4.571L76.172 31z"/>
    </g>
</svg>
