<svg xmlns="http://www.w3.org/2000/svg" width="159" height="150" viewBox="0 0 159 150">
    <path fill="#C9D8FC" d="M136.188.695l.144.061 20.766 9.764c1.362.64 1.542 2.482.383 3.384l-.13.093-19.127 12.676c-.92.61-2.162.359-2.772-.562-.58-.875-.382-2.038.43-2.676l.132-.096 12.764-8.46-12.135.887-.806.121c-28.15 4.297-55.77 17.828-78.523 38.95l-.182.17C61.403 59.785 64 66.09 64 73c0 14.912-12.088 27-27 27-4.535 0-8.81-1.118-12.561-3.094-8.639 15.479-15.262 32.708-19.57 51.423-.248 1.076-1.321 1.748-2.398 1.5-1.076-.248-1.748-1.321-1.5-2.398 4.408-19.152 11.202-36.794 20.072-52.649C14.347 89.869 10 81.942 10 73c0-14.912 12.088-27 27-27 6.558 0 12.57 2.338 17.248 6.227l-.383.358c23.477-22.056 52.13-36.194 81.388-40.655l.887-.132.143-.016 12.204-.89-13.857-6.516c-.952-.448-1.387-1.55-1.02-2.517l.06-.144c.448-.952 1.55-1.387 2.518-1.02zM37 50c-12.703 0-23 10.297-23 23 0 8.765 4.903 16.384 12.115 20.266l.315.167C29.595 95.073 33.19 96 37 96l.38-.003C49.907 95.794 60 85.576 60 73c0-12.703-10.297-23-23-23z"/>
</svg>
